metric,crop,location,n_2,n_3,n_5,n_8,n_12,n_15,n_20
D50,bean,L1,0.081,0.091,0.1135,0.1535,0.193,0.2245,0.301
D50,bean,L2,0.0555,0.0415,0.039,0.0355,0.042,0.029,0.034
D50,bean,L3,0.137,0.2005,0.2985,0.4375,0.6525,0.7305,0.872
D50,bean,L4,0.204,0.3215,0.597,0.867,0.9795,0.9945,1
D50,bean,L5,0.2085,0.378,0.709,0.9475,0.9965,0.9985,1
D50,bean,L6,0.0645,0.05,0.062,0.055,0.0635,0.0755,0.0685
D50,bean,random,0.1445,0.209,0.3875,0.6185,0.8295,0.9115,0.981
D50,bean,whole plot,1,1,1,1,1,1,1
D50,maize,L1,0.3345,0.5035,0.6955,0.845,0.975,0.996,1
D50,maize,L2,0.2445,0.3815,0.6125,0.848,0.981,0.996,1
D50,maize,L3,0.1015,0.1575,0.1855,0.2685,0.377,0.4825,0.609
D50,maize,L4,0.183,0.341,0.567,0.793,0.956,0.988,0.9995
D50,maize,L5,0.175,0.271,0.396,0.728,0.908,0.9515,0.997
D50,maize,L6,0.3535,0.553,0.718,0.88,0.9815,0.9975,0.999
D50,maize,random,0.079,0.08,0.106,0.1385,0.1945,0.2445,0.3235
D50,maize,whole plot,1,1,1,1,1,1,1
D80,bean,L1,0.07,0.075,0.0845,0.0975,0.1285,0.1545,0.205
D80,bean,L2,0.0675,0.0645,0.054,0.0585,0.0745,0.0735,0.096
D80,bean,L3,0.102,0.123,0.1735,0.2685,0.418,0.4965,0.6445
D80,bean,L4,0.118,0.145,0.307,0.536,0.786,0.8775,0.969
D80,bean,L5,0.131,0.1425,0.2745,0.516,0.758,0.8685,0.962
D80,bean,L6,0.0585,0.056,0.0585,0.0515,0.0625,0.059,0.065
D80,bean,random,0.107,0.145,0.2455,0.3655,0.582,0.663,0.8385
D80,bean,whole plot,1,1,1,1,1,1,1
D80,maize,L1,0.1555,0.1485,0.226,0.36,0.5475,0.6845,0.845
D80,maize,L2,0.2605,0.4265,0.676,0.8985,0.9835,0.996,1
D80,maize,L3,0.088,0.12,0.13,0.188,0.2455,0.306,0.391
D80,maize,L4,0.1525,0.2195,0.3845,0.5825,0.825,0.906,0.9765
D80,maize,L5,0.164,0.217,0.302,0.5905,0.801,0.8655,0.972
D80,maize,L6,0.1565,0.19,0.2735,0.417,0.626,0.7485,0.8945
D80,maize,random,0.078,0.0805,0.111,0.1385,0.1905,0.228,0.305
D80,maize,whole plot,0.9995,1,1,1,1,1,1
D90,bean,L1,0.0845,0.076,0.086,0.087,0.125,0.1485,0.1975
D90,bean,L2,0.056,0.07,0.064,0.076,0.0985,0.1195,0.1555
D90,bean,L3,0.0995,0.1185,0.161,0.236,0.3845,0.4825,0.6275
D90,bean,L4,0.088,0.1015,0.1915,0.3425,0.529,0.646,0.814
D90,bean,L5,0.1075,0.107,0.174,0.3245,0.5305,0.6385,0.8185
D90,bean,L6,0.0605,0.0635,0.0725,0.0595,0.07,0.075,0.09
D90,bean,random,0.099,0.1185,0.2055,0.3135,0.4975,0.5905,0.7555
D90,bean,whole plot,1,1,1,1,1,1,1
D90,maize,L1,0.1215,0.111,0.1525,0.2485,0.3945,0.498,0.678
D90,maize,L2,0.248,0.3665,0.6355,0.8855,0.9845,0.9945,1
D90,maize,L3,0.088,0.0945,0.1115,0.1605,0.217,0.2585,0.336
D90,maize,L4,0.154,0.1805,0.312,0.5075,0.7535,0.8455,0.9475
D90,maize,L5,0.144,0.182,0.2445,0.5155,0.7155,0.802,0.9325
D90,maize,L6,0.1295,0.132,0.1865,0.299,0.488,0.5805,0.787
D90,maize,random,0.079,0.076,0.085,0.1085,0.1435,0.176,0.229
D90,maize,whole plot,0.9865,1,1,1,1,1,1
D95,bean,L1,0.0735,0.072,0.0795,0.0815,0.127,0.156,0.2055
D95,bean,L2,0.068,0.0735,0.078,0.092,0.121,0.1555,0.1985
D95,bean,L3,0.105,0.1095,0.1495,0.217,0.3725,0.475,0.5985
D95,bean,L4,0.0805,0.08,0.14,0.2365,0.377,0.4845,0.6495
D95,bean,L5,0.099,0.0835,0.1225,0.214,0.355,0.4235,0.586
D95,bean,L6,0.06,0.0595,0.06,0.0545,0.0695,0.061,0.0645
D95,bean,random,0.098,0.0935,0.1505,0.234,0.386,0.4595,0.616
D95,bean,whole plot,1,1,1,1,1,1,1
D95,maize,L1,0.1145,0.082,0.1275,0.2005,0.305,0.3905,0.5585
D95,maize,L2,0.24,0.3105,0.589,0.878,0.9875,0.997,1
D95,maize,L3,0.0885,0.0875,0.0965,0.131,0.1745,0.214,0.2595
D95,maize,L4,0.129,0.1335,0.2445,0.4115,0.643,0.745,0.8925
D95,maize,L5,0.1525,0.158,0.207,0.466,0.6595,0.751,0.8925
D95,maize,L6,0.1175,0.126,0.184,0.3065,0.5095,0.602,0.8105
D95,maize,random,0.063,0.067,0.0805,0.092,0.1255,0.1505,0.1815
D95,maize,whole plot,0.9795,1,1,1,1,1,1
